<svg width="16" height="9" viewBox="0 0 16 9" fill="none" xmlns="http://www.w3.org/2000/svg">
<path d="M14.9282 2L7.99998 8L1.07178 2" stroke="#FEFEFE" stroke-linecap="round" stroke-linejoin="round"/>
</svg>
